{
    "coins_upgrade_collection": {
        "_init": {
            "1": {
                "_init": {
                    "1": {
                        "silver_chance": 0,
                        "gold_chance": 0
                    },
                    "2": {
                        "silver_chance": 0,
                        "gold_chance": 0
                    },
                    "3": {
                        "silver_chance": 10,
                        "gold_chance": 0
                    }
                },
                "upgrade": 0
            },
            "2": {
                "_init": {
                    "1": {
                        "silver_chance": 0,
                        "gold_chance": 0
                    },
                    "2": {
                        "silver_chance": 10,
                        "gold_chance": 0
                    },
                    "3": {
                        "silver_chance": 10,
                        "gold_chance": 5
                    }
                },
                "upgrade": 1
            },
            "3": {
                "_init": {
                    "1": {
                        "silver_chance": 10,
                        "gold_chance": 0
                    },
                    "2": {
                        "silver_chance": 12,
                        "gold_chance": 5
                    },
                    "3": {
                        "silver_chance": 15,
                        "gold_chance": 10
                    }
                },
                "upgrade": 2
            },
            "4": {
                "_init": {
                    "1": {
                        "silver_chance": 12,
                        "gold_chance": 5
                    },
                    "2": {
                        "silver_chance": 15,
                        "gold_chance": 10
                    },
                    "3": {
                        "silver_chance": 20,
                        "gold_chance": 10
                    }
                },
                "upgrade": 3
            },
            "5": {
                "_init": {
                    "1": {
                        "silver_chance": 15,
                        "gold_chance": 10
                    },
                    "2": {
                        "silver_chance": 20,
                        "gold_chance": 10
                    },
                    "3": {
                        "silver_chance": 25,
                        "gold_chance": 15
                    }
                },
                "upgrade": 4
            },
            "6": {
                "_init": {
                    "1": {
                        "silver_chance": 15,
                        "gold_chance": 10
                    },
                    "2": {
                        "silver_chance": 20,
                        "gold_chance": 15
                    },
                    "3": {
                        "silver_chance": 25,
                        "gold_chance": 25
                    }
                },
                "upgrade": 5
            }
        },
        "first_check_point": 24000,
        "second_check_point": 47000
    }
}