{
    "labels": {
        "end_label": {
            "russian": "ЗАКОНЧИТЬ ОБУЧЕНИЕ",
            "english": "FINISH"
        },
        "prev_label": {
            "russian": "ПРЕДЫДУЩИЙ ШАГ",
            "english": "PREVIOUS"
        },
        "next_label": {
            "russian": "СЛЕДУЮЩИЙ ШАГ",
            "english": "NEXT"
        }
    },
    "russian": {
        "1": {
            "text": "<p>Смирно, рядовой!</p><br><p>С тобой говорит майор Циклоп, 100 000 прыжков- ни одного удачного приземления... Кх-м, о чем это я. Ну так вот, я покажу тебе, как достичь вершин мастерства в таком сложном деле, как прыжки из космоса.</p>"
        },
        "2": {
            "text": "<p>Да, кстати.</p><br><p>Завершить обучение можно в любой момент, нажав на кнопку “Закончить обучение”.</p><br><p>Я всегда буду на связи, если что!</p>"
        },
        "3": {
            "text": "<p>Итак, мы на высоте 40 км от Земли. Чтобы начать игру, нажми кнопку “прыгнуть”. Всегда срабатывает. Но будь осторожен, если состояние твоего скафандра, оставляет желать лучшего - прыжок не состоится. Ремонтруй скафандр вовремя. Как говорится: “готовь санки к обеду!“</p>"
        },
        "4": {
            "text": "<p>На данный момент существует 4 режима игры:<br>легкий, средний, тяжелый и бесконечный. Отличаются они плотностью генарации врагов и высотой начала прыжка. </p><p>Чем выше сложность, тем больше награда. Цель игры во всех режимах, кроме бесконечного - успешно приземлиться и набрать при этом много очков!</p>"
        },
        "5": {
            "text": "<p>Рядовой, чтобы расти над собой, выполняй задания!</p><br><p>Чем больше заданий ты выполнил, тем больше растет твой множитель очков!</p><br><p>Чем больше твой множитель очков, тем больше очков ты получаешь в полете.</p>"
        },
        "6": {
            "text": "<p>От количества очков, напрямую зависит твое место в рейтинге, рядовой!</p><br> <p>Учитывается максимальное количество очков за один полет!</p><br><p>Если ты абсолютный чемпион по очкам, то тебе полагается корона! Но будь осторожен, другие претенденты на престол, не дремлют</p>"
        },
        "7": {
            "text": "<p>Свои честно заработанные или, честно приобретенные в банке, деньги можно тратить на различные улучшения и предметы в магазине.</p><br><p>Так же здесь можно обновить капсулу, скафандр или прикупить головной убор, чтобы выделятся среди коллег по цеху.</p>"
        },
        "8": {
            "text": "<p>Время от времени тебе будут попадаться черные ящики, в них содержатся трофеи.</p><br/><p>Трофеи очень редки, поэтому и ценны. Попробуй собрать их всех!</p>"
        },
        "9": {
            "text": "<p>Теперь самое главное, рядовой. Я расскажу про опасности, поджидающие тебя в пути!</p><br><p>Столкновение с этими объектами опасно для жизни.</p>",
            "additional_labels": {
                "0": {
                    "text": "<font color='#ffffff' size='14'>Птицы</font>",
                    "x": "126",
                    "y": "476"
                },
                "1": {
                    "text": "<font color='#ffffff' size='14'>Ящики</font>",
                    "x": "441",
                    "y": "476"
                },
                "2": {
                    "text": "<font color='#ffffff' size='14'>НЛО</font>",
                    "x": "692",
                    "y": "476"
                },
                "3": {
                    "text": "<font color='#ffffff' size='14'>Петарды</font>",
                    "x": "126",
                    "y": "588"
                },
                "4": {
                    "text": "<font color='#ffffff' size='14'>Спутники</font>",
                    "x": "421",
                    "y": "588"
                },
                "5": {
                    "text": "<font color='#ffffff' size='14'>Самолеты</font>",
                    "x": "692",
                    "y": "588"
                },
                "6": {
                    "text": "<font color='#ffffff' size='14'>Ворует деньги!</font>",
                    "x": 526,
                    "y": 81
                }
            }
        },
        "10": {
            "text": "<p>Но не все так плохо! Помимо опасностей тебя ждут и различные бонусы.</p><br><p>Эти объекты резко повысят твои шансы успешно приземлиться!</p><br><p>Смотри!</p>",
            "additional_labels": {
                "0": {
                    "text": "<font color='#ffffff' size='14'>Медная монета</font><br><font color='#999999' size='12'>Самый маленький номинал</font>",
                    "x": "80",
                    "y": "466"
                },
                "1": {
                    "text": "<font color='#ffffff' size='14'>Сердце</font><br><font color='#999999' size='12'>Восполняет здоровье</font>",
                    "x": "345",
                    "y": "466"
                },
                "2": {
                    "text": "<font color='#ffffff' size='14'>Золотой щит</font><br><font size='12' color='#999999'>Кратковременная<br>неуязвимость</font>",
                    "x": "620",
                    "y": "466"
                },
                "3": {
                    "text": "<font color='#ffffff' size='14'>Серебрянная монета</font><br><font size='12' color='#999999'>Идет за две медных</font>",
                    "x": "80",
                    "y": "524"
                },
                "4": {
                    "text": "<font color='#ffffff' size='14'>Золотая монета</font><br><font size='12' color='#999999'>Идет за три медных</font>",
                    "x": "80",
                    "y": "580"
                },
                "5": {
                    "text": "<font color='#ffffff' size='14'>Маленький щит</font><br><font size='12' color='#999999'>Экстра-здоровье</font>",
                    "x": "345",
                    "y": "523"
                },
                "6": {
                    "text": "<font color='#ffffff' size='14'>Джет-кола</font><br><font size='12' color='#999999'>соберите 20 в ряд:)</font>",
                    "x": "345",
                    "y": "580"
                },
                "7": {
                    "text": "<font color='#ffffff' size='14'>Золотая ракета</font><br><font size='12' color='#999999'>Кратковременное<br>ускорение</font>",
                    "x": "620",
                    "y": "553"
                },
                "8": {
                    "text": "<font color='#ffffff' size='14'>Кристаллы</font><br><font size='12' color='#999999'>продаются в банке</font>",
                    "x": "80",
                    "y": "636"
                },
                "9": {
                    "text": "<font color='#ffffff' size='14'>Черный ящик</font><br><font size='12' color='#999999'>друзья обзавидуются</font>",
                    "x": "345",
                    "y": "636"
                }
            }
        },
        "11": {
            "text": "<p>Окей, я вижу ты готов.</p><br><p>Можешь отправить весточку на Землю, пока есть такая возможность... хе-хе</p><br><p>Успешного приземления, камрад.</p>"
        }
    },
    "english": {
        "1": {
            "text": "<p>Attention Soldier!</p><br><p>My Name is Major Cyclops! 100,000 space jumps without a successful landing… Khm… Back to the point, I’m going to show you how to perfect your spacediving skills.</p>"
        },
        "2": {
            "text": "<p>By the way.</p><br><p>You can exit the tutorial any time. Just click the button up there.</p><br><p>However, we will still stay in touch if necessary.</p>"
        },
        "3": {
            "text": "<p>Now we are 40,000 meters above the surface. Click ‘Jump’ to start the game. It usually works… Remember to check your space-suit before each jump. Repair it if needed.</p>"
        },
        "4": {
            "text": "<p>These days, the game has 4 modes (easy, normal, hard and endless).<br>They differ with the enemies’ density and the starting height.</p><p>The higher you start, the better reward you get. The ultimate goal is to land successfully and earn as many points as possible.</p>"
        },
        "5": {
            "text": "<p>Soldier, you must carry out each mission to increase your point’s multiplier. </p><br><p>The higher multiplier is, the more points you gain during your dive. </p>"
        },
        "6": {
            "text": "<p>Your rate depends on your score.</p><br><p>Only max score during a single jump is taken into account.</p><br><p>If you are the overall winner, you will have a crown! But remember that your competitors are willing to dethrone you!</p>"
        },
        "7": {
            "text": "<p>All your honestly earned or purchased coins you can use for upgrading your module and buying some necessary items in the store.</p><br><p>There are many stylish hats and fashionable suit which will help you to stand out against your friends.</p>"
        },
        "8": {
            "text": "<p>From time to time you will find black boxes. They contain some rare trophies.</p><br/><p>Try to collect them all!</p>"
        },
        "9": {
            "text": "<p>Now, soldier, the main thing. I’ll tell you about the dangers you may face on your path.</p><br><p>Collision with these objects is life-threatening.</p>",
            "additional_labels": {
                "0": {
                    "text": "<font color='#ffffff' size='14'>Birds</font>",
                    "x": "126",
                    "y": "476"
                },
                "1": {
                    "text": "<font color='#ffffff' size='14'>Boxes</font>",
                    "x": "441",
                    "y": "476"
                },
                "2": {
                    "text": "<font color='#ffffff' size='14'>UFO</font>",
                    "x": "692",
                    "y": "476"
                },
                "3": {
                    "text": "<font color='#ffffff' size='14'>Petards</font>",
                    "x": "126",
                    "y": "588"
                },
                "4": {
                    "text": "<font color='#ffffff' size='14'>Satellites</font>",
                    "x": "421",
                    "y": "588"
                },
                "5": {
                    "text": "<font color='#ffffff' size='14'>Planes</font>",
                    "x": "692",
                    "y": "588"
                },
                "6": {
                    "text": "<font color='#ffffff' size='14'>Stealing your money!</font>",
                    "x": 526,
                    "y": 81
                }
            }
        },
        "10": {
            "text": "<p>However, this is not the whole story! You will find many bonuses as well!</p><br><p>These objects will dramatically increase your chances to land!</p><br><p>Look!</p>",
            "additional_labels": {
                "0": {
                    "text": "<font color='#ffffff' size='14'>Copper coin</font><br><font color='#999999' size='12'>The smallest coin</font>",
                    "x": "80",
                    "y": "466"
                },
                "1": {
                    "text": "<font color='#ffffff' size='14'>Hart</font><br><font color='#999999' size='12'>Health regeneration</font>",
                    "x": "345",
                    "y": "466"
                },
                "2": {
                    "text": "<font color='#ffffff' size='14'>Golden shield</font><br><font size='12' color='#999999'>Makes you invulnerable<br>for a while </font>",
                    "x": "620",
                    "y": "466"
                },
                "3": {
                    "text": "<font color='#ffffff' size='14'>Silver coin</font><br><font size='12' color='#999999'>Costs as much<br>as 2 copper coins</font>",
                    "x": "80",
                    "y": "524"
                },
                "4": {
                    "text": "<font color='#ffffff' size='14'>Gold coin</font><br><font size='12' color='#999999'>Costs as much<br>as 3 copper coins</font>",
                    "x": "80",
                    "y": "580"
                },
                "5": {
                    "text": "<font color='#ffffff' size='14'>Small shield</font><br><font size='12' color='#999999'>Gives you extra heath</font>",
                    "x": "345",
                    "y": "523"
                },
                "6": {
                    "text": "<font color='#ffffff' size='14'>Jet-Cola</font><br><font size='12' color='#999999'>Get 20 at once:)</font>",
                    "x": "345",
                    "y": "580"
                },
                "7": {
                    "text": "<font color='#ffffff' size='14'>Golden Rocket</font><br><font size='12' color='#999999'>Short-term<br>boost</font>",
                    "x": "620",
                    "y": "553"
                },
                "8": {
                    "text": "<font color='#ffffff' size='14'>Gem</font><br><font size='12' color='#999999'>You can buy it<br>in the bank</font>",
                    "x": "80",
                    "y": "636"
                },
                "9": {
                    "text": "<font color='#ffffff' size='14'>Black box</font><br><font size='12' color='#999999'>Your friends<br>will be envy to death</font>",
                    "x": "345",
                    "y": "636"
                }
            }
        },
        "11": {
            "text": "<p>Okay, I see you are ready to start your diving career!</p><br><p>Now it’s the last chance to drop a line to the Earth.</p><br><p>Good land comrade!</p>"
        }
    }
}
