{
    "achievements": {
        "_init": {
            "0": {
                "id": 0,
                "name_ru": "Сделал круто",
                "name_en": "You did it",
                "description_ru": "Чтобы получить достижение, надо сделать круто",
                "description_en": "To have this achievement you must did it cool",
                "sort": 100
            },
            "1": {
                "id": 1,
                "name_ru": "Сделал херово",
                "name_en": "You did not it",
                "description_ru": "Чтобы получить достижение, надо сделать херово",
                "description_en": "To have this achievement you must did it very fuckly"
            }
        }
    },
    "coins_prices": [
        {
            "coins": 500,
            "price": 1,
            "image": "SPACE_MONEY_TIER_1"
        },
        {
            "coins": 1000,
            "price": 25,
            "image": "SPACE_MONEY_TIER_2"
        },
        {
            "coins": 5000,
            "price": 25,
            "image": "SPACE_MONEY_TIER_3"
        },
        {
            "coins": 10000,
            "price": 50,
            "image": "SPACE_MONEY_TIER_4"
        },
        {
            "coins": 25000,
            "price": 150,
            "image": "SPACE_MONEY_TIER_5"
        },
        {
            "coins": 50000,
            "price": 300,
            "image": "SPACE_MONEY_TIER_6"
        }
    ],
    "items": {
        "_init": {
            "1": {
                "id": 1,
                "name_ru": "Здоровье",
                "name_en": "Health",
                "description_ru": "Увеличивает здоровье<br><font size='12' color='#ffff3d'>на одно сердце</font>",
                "description_en": "Increases health<br><font size='12' color='#ffff3d'>with one heard</font>",
                "rubric": "upgrades",
                "image": "SPACE_HEART_UPGRADE",
                "action": "improve_health",
                "price": 123,
                "max_to_buy": 5
            },
            "2": {
                "id": 2,
                "name_ru": "Парашют",
                "name_en": "Parachute",
                "description_ru": "<font size='12' color='#4ae5ff'>Снижает скорость падения</font><br><font size='12' color='#1697b5'>(после использования исчезает)</font>",
                "description_en": "<font size='12' color='#4ae5ff'>Decrease speed of fall</font><br><font size='12' color='#1697b5'>(disappears after usage)</font>",
                "rubric": "consumables",
                "image": "SPACE_PARASHUT_ICON",
                "action": "parachute",
                "price": 456,
                "max_to_buy": -1
            },
            "3": {
                "id": 3,
                "name_ru": "Скин геолога",
                "name_en": "Skin of the geologist",
                "description_ru": "<font size='12' color='#4ae5ff'>GOD MODE ON</font><br><font size='12' color='#1697b5'>(шапки не отображаются)</font>",
                "description_en": "<font size='12' color='#4ae5ff'>GOD MODE ON</font><br><font size='12' color='#1697b5'>(there is no hat)</font>",
                "rubric": "suits",
                "image": "SPACE_GEOLOG_SKIN",
                "action": "suite",
                "price": 567,
                "max_to_buy": 1
            },
            "4": {
                "id": 4,
                "name_ru": "Шляпа дудлера",
                "name_en": "Hat of the Doodler",
                "description_ru": "<font size='12' color='#4ae5ff'>Милая шапочка</font><br><font size='12' color='#1697b5'>(шляпа с пропеллером)</font>",
                "description_en": "<font size='12' color='#4ae5ff'>Cute hatty</font><br><font size='12' color='#1697b5'>(hat with propeller)</font>",
                "rubric": "hats",
                "image": "SPACE_HAT_01",
                "action": "hat",
                "price": 678,
                "max_to_buy": 1
            },
            "5": {
                "id": 5,
                "name_ru": "Золотая капсула",
                "name_en": "Gold capsule",
                "description_ru": "<font size='12' color='#4ae5ff'>Самая золотая капсула</font><br><font size='12' color='#1697b5'>(самая дорогая капсула)</font>",
                "description_en": "<font size='12' color='#4ae5ff'>Gold capsule</font><br><font size='12' color='#1697b5'>(most expansive)</font>",
                "rubric": "capsule",
                "image": "SPACE_GOLD_CAPSULE",
                "action": "capsule",
                "price": 890,
                "max_to_buy": 1
            }
        }
    },
    "inventory": {
        "_init": {
            "0": {
                "count": 1,
                "item": 3,
                "id": 0,
                "equipped": 1
            },
            "1": {
                "count": 1,
                "item": 5,
                "id": 1,
                "equipped": 1
            }
        }
    },
    "top_day": {
        "_init": {
            "0": {
                "user_info": {
                    "id": 0,
                    "soc_net_id": 3081515
                },
                "inventory": {
                    "_init": {
                    }
                }
            }
        }
    },
    "top_week": {
        "_init": {
            "0": {
                "user_info": {
                    "id": 0,
                    "soc_net_id": 3081515
                },
                "inventory": {
                    "_init": {
                    }
                }
            }
        }
    },
    "top_month": {
        "_init": {
            "0": {
                "user_info": {
                    "id": 0,
                    "soc_net_id": 3081515
                },
                "inventory": {
                    "_init": {
                    }
                }
            }
        }
    },
    "top_global": {
        "_init": {
            "0": {
                "user_info": {
                    "id": 0,
                    "soc_net_id": 3081515
                },
                "inventory": {
                    "_init": {
                    }
                }
            }
        }
    },
    "trophies_collections": {
        "_init": {
            "1": {
                "sort": 0,
                "name_ru": "Ящики",
                "code": "boxes",
                "trophies_list": {
                    "_init": {
                        "1": {
                            "sort": 0,
                            "name_ru": "Ящик 1",
                            "image": "TROPHYS_1",
                            "trophies_collection": 1,
                            "symbol": "box11",
                            "name_en": "Box 1",
                            "id": 1
                        },
                        "2": {
                            "sort": 1,
                            "name_ru": "Ящик 2",
                            "image": "TROPHYS_2",
                            "trophies_collection": 1,
                            "symbol": "box11",
                            "name_en": "Box 2",
                            "id": 2
                        },
                        "3": {
                            "sort": 2,
                            "name_ru": "Ящик 3",
                            "image": "TROPHYS_3",
                            "trophies_collection": 1,
                            "symbol": "box11",
                            "name_en": "Box 3",
                            "id": 3
                        },
                        "4": {
                            "sort": 3,
                            "name_ru": "Ящик 4",
                            "image": "TROPHYS_4",
                            "trophies_collection": 1,
                            "symbol": "box11",
                            "name_en": "Box 4",
                            "id": 4
                        },
                        "5": {
                            "sort": 4,
                            "name_ru": "Ящик 5",
                            "image": "TROPHYS_1",
                            "trophies_collection": 1,
                            "symbol": "box11",
                            "name_en": "Box 5",
                            "id": 5
                        }
                    }
                },
                "name_en": "Boxes",
                "id": 1
            }
        }
    },
    "user": {
        "soc_net_id": 0,
        "max_score_global": 1234567890,
        "max_score_month": 12345,
        "max_score_week": 1234,
        "max_score_day": 123,
        "jumps_count": 9876,
        "landings_count": 1356,
        "summary_time": 9876,
        "coins": 1000000,
        "stars": 98,
        "health": 8,
        "acceleration": 9,
        "immortality": 4,
        "coins_improve_level": 5
    },
    "user_achievements": {
        "_add": {
            "0": {
                "id": 0,
                "achievement": 0
            },
            "1": {
                "id": 0,
                "achievement": 1
            }
        }
    },
    "users_trophies": {
        "_add": {
            "1": {
                "trophy": 1,
                "id": 1
            },
            "2": {
                "trophy": 2,
                "id": 2
            }
        }
    }
}
